[gd_resource type="TileSet" load_steps=36 format=2]

[ext_resource path="res://Tilesets/Walls/Sprites/walls_0002_Layer-3.png" type="Texture" id=1]
[ext_resource path="res://Tilesets/Furniture/Counch.png" type="Texture" id=2]
[ext_resource path="res://Tilesets/Furniture/TapeteCanto.png" type="Texture" id=3]
[ext_resource path="res://Tilesets/Furniture/Tapete.png" type="Texture" id=4]
[ext_resource path="res://Tilesets/Furniture/TapeteMeio.png" type="Texture" id=5]
[ext_resource path="res://Tilesets/Furniture/TILE_ARMARIO.png" type="Texture" id=6]
[ext_resource path="res://Tilesets/Furniture/TILE_CHAO.png" type="Texture" id=7]
[ext_resource path="res://Tilesets/Furniture/TILE_GELADEIRA.png" type="Texture" id=8]
[ext_resource path="res://Tilesets/Furniture/TILE_PAREDE.png" type="Texture" id=9]
[ext_resource path="res://Tilesets/Furniture/TILE_PRIVADA.png" type="Texture" id=10]
[ext_resource path="res://Tilesets/Furniture/TILE_VASO_PLANTA.png" type="Texture" id=11]
[ext_resource path="res://Tilesets/Walls/Sprites/black.png" type="Texture" id=12]
[ext_resource path="res://Tilesets/Furniture/CounchArm.png" type="Texture" id=13]
[ext_resource path="res://Tilesets/Furniture/TILE_CHAO_BOX.png" type="Texture" id=14]
[ext_resource path="res://Tilesets/Furniture/TILE_TAPETE.png" type="Texture" id=15]
[ext_resource path="res://Tilesets/Furniture/TILE_MESA_CANTO.png" type="Texture" id=16]
[ext_resource path="res://Tilesets/Furniture/TILE_MESA_CANTO2.png" type="Texture" id=17]
[ext_resource path="res://Tilesets/Furniture/Poltrona.png" type="Texture" id=18]
[ext_resource path="res://Tilesets/Furniture/Television.png" type="Texture" id=19]
[ext_resource path="res://Tilesets/Furniture/CenterTable.png" type="Texture" id=20]
[ext_resource path="res://Tilesets/Furniture/TableTop.png" type="Texture" id=21]
[ext_resource path="res://Tilesets/Furniture/TableBottom.png" type="Texture" id=22]
[ext_resource path="res://Tilesets/Furniture/Sink.png" type="Texture" id=23]
[ext_resource path="res://Tilesets/Furniture/Oven.png" type="Texture" id=24]

[sub_resource type="RectangleShape2D" id=1]

custom_solver_bias = 0.0
extents = Vector2( 32, 32 )

[sub_resource type="RectangleShape2D" id=2]

custom_solver_bias = 0.0
extents = Vector2( 32, 32 )

[sub_resource type="RectangleShape2D" id=9]

custom_solver_bias = 0.0
extents = Vector2( 32, 32 )

[sub_resource type="RectangleShape2D" id=3]

custom_solver_bias = 0.0
extents = Vector2( 32, 32 )

[sub_resource type="RectangleShape2D" id=11]

custom_solver_bias = 0.0
extents = Vector2( 32, 32 )

[sub_resource type="RectangleShape2D" id=4]

custom_solver_bias = 0.0
extents = Vector2( 32, 32 )

[sub_resource type="RectangleShape2D" id=5]

custom_solver_bias = 0.0
extents = Vector2( 35, 15 )

[sub_resource type="CircleShape2D" id=6]

custom_solver_bias = 0.0
radius = 32.0

[sub_resource type="RectangleShape2D" id=7]

custom_solver_bias = 0.0
extents = Vector2( 32, 32 )

[sub_resource type="RectangleShape2D" id=8]

custom_solver_bias = 0.0
extents = Vector2( 32, 32 )

[sub_resource type="RectangleShape2D" id=10]

custom_solver_bias = 0.0
extents = Vector2( 32, 32 )

[resource]

0/name = "001 - Wall"
0/texture = ExtResource( 1 )
0/tex_offset = Vector2( 0, 0 )
0/modulate = Color( 1, 1, 1, 1 )
0/region = Rect2( 0, 0, 64, 64 )
0/is_autotile = false
0/occluder_offset = Vector2( 32, 32 )
0/navigation_offset = Vector2( 32, 32 )
0/shapes = [ {
"autotile_coord": Vector2( 0, 0 ),
"one_way": false,
"shape": SubResource( 1 ),
"shape_transform": Transform2D( 1, 0, 0, 1, 32, 32 )
} ]
1/name = "002 - Couch"
1/texture = ExtResource( 2 )
1/tex_offset = Vector2( 0, 0 )
1/modulate = Color( 1, 1, 1, 1 )
1/region = Rect2( 0, 0, 64, 64 )
1/is_autotile = false
1/occluder_offset = Vector2( 32, 32 )
1/navigation_offset = Vector2( 32, 32 )
1/shapes = [ {
"autotile_coord": Vector2( 0, 0 ),
"one_way": false,
"shape": SubResource( 2 ),
"shape_transform": Transform2D( 1, 0, 0, 1, 32, 32 )
} ]
2/name = "003 - CouchArm"
2/texture = ExtResource( 13 )
2/tex_offset = Vector2( 0, 0 )
2/modulate = Color( 1, 1, 1, 1 )
2/region = Rect2( 0, 0, 64, 64 )
2/is_autotile = false
2/occluder_offset = Vector2( 32, 32 )
2/navigation_offset = Vector2( 32, 32 )
2/shapes = [ {
"autotile_coord": Vector2( 0, 0 ),
"one_way": false,
"shape": SubResource( 3 ),
"shape_transform": Transform2D( 1, 0, 0, 1, 32, 32 )
} ]
3/name = "004 - Poltrona"
3/texture = ExtResource( 18 )
3/tex_offset = Vector2( 0, 0 )
3/modulate = Color( 1, 1, 1, 1 )
3/region = Rect2( 0, 0, 64, 64 )
3/is_autotile = false
3/occluder_offset = Vector2( 32, 32 )
3/navigation_offset = Vector2( 32, 32 )
3/shapes = [ {
"autotile_coord": Vector2( 0, 0 ),
"one_way": false,
"shape": SubResource( 4 ),
"shape_transform": Transform2D( 1, 0, 0, 1, 32, 32 )
} ]
4/name = "005 - Television"
4/texture = ExtResource( 19 )
4/tex_offset = Vector2( 0, 0 )
4/modulate = Color( 1, 1, 1, 1 )
4/region = Rect2( 0, 0, 64, 64 )
4/is_autotile = false
4/occluder_offset = Vector2( 32, 32 )
4/navigation_offset = Vector2( 32, 32 )
4/shapes = [ {
"autotile_coord": Vector2( 0, 0 ),
"one_way": false,
"shape": SubResource( 5 ),
"shape_transform": Transform2D( 1, 0, 0, 1, 32, 32 )
} ]
5/name = "006 - CenterTable"
5/texture = ExtResource( 20 )
5/tex_offset = Vector2( 0, 0 )
5/modulate = Color( 1, 1, 1, 1 )
5/region = Rect2( 0, 0, 64, 64 )
5/is_autotile = false
5/occluder_offset = Vector2( 32, 32 )
5/navigation_offset = Vector2( 32, 32 )
5/shapes = [ {
"autotile_coord": Vector2( 0, 0 ),
"one_way": false,
"shape": SubResource( 6 ),
"shape_transform": Transform2D( 1, 0, 0, 1, 32, 32 )
} ]
6/name = "007 - DinnerTableCorner"
6/texture = ExtResource( 21 )
6/tex_offset = Vector2( 0, 0 )
6/modulate = Color( 1, 1, 1, 1 )
6/region = Rect2( 0, 0, 64, 64 )
6/is_autotile = false
6/occluder_offset = Vector2( 32, 32 )
6/navigation_offset = Vector2( 32, 32 )
6/shapes = [ {
"autotile_coord": Vector2( 0, 0 ),
"one_way": false,
"shape": SubResource( 7 ),
"shape_transform": Transform2D( 1, 0, 0, 1, 32, 32 )
} ]
7/name = "008 - DinnerTableSide"
7/texture = ExtResource( 22 )
7/tex_offset = Vector2( 0, 0 )
7/modulate = Color( 1, 1, 1, 1 )
7/region = Rect2( 0, 0, 519, 430 )
7/is_autotile = false
7/occluder_offset = Vector2( 259.5, 215 )
7/navigation_offset = Vector2( 259.5, 215 )
7/shapes = [ {
"autotile_coord": Vector2( 0, 0 ),
"one_way": false,
"shape": SubResource( 8 ),
"shape_transform": Transform2D( 1, 0, 0, 1, 259.5, 215 )
} ]
8/name = "009 - Sink"
8/texture = ExtResource( 23 )
8/tex_offset = Vector2( 0, 0 )
8/modulate = Color( 1, 1, 1, 1 )
8/region = Rect2( 0, 0, 64, 64 )
8/is_autotile = false
8/occluder_offset = Vector2( 32, 32 )
8/navigation_offset = Vector2( 32, 32 )
8/shapes = [ {
"autotile_coord": Vector2( 0, 0 ),
"one_way": false,
"shape": SubResource( 9 ),
"shape_transform": Transform2D( 1, 0, 0, 1, 32, 32 )
} ]
9/name = "010 - Oven"
9/texture = ExtResource( 24 )
9/tex_offset = Vector2( 0, 0 )
9/modulate = Color( 1, 1, 1, 1 )
9/region = Rect2( 0, 0, 64, 64 )
9/is_autotile = false
9/occluder_offset = Vector2( 32, 32 )
9/navigation_offset = Vector2( 32, 32 )
9/shapes = [ {
"autotile_coord": Vector2( 0, 0 ),
"one_way": false,
"shape": SubResource( 10 ),
"shape_transform": Transform2D( 1, 0, 0, 1, 32, 32 )
} ]
10/name = "011 - TapeteCanto"
10/texture = ExtResource( 3 )
10/tex_offset = Vector2( 0, 0 )
10/modulate = Color( 1, 1, 1, 1 )
10/region = Rect2( 0, 0, 64, 64 )
10/is_autotile = false
10/occluder_offset = Vector2( 32, 32 )
10/navigation_offset = Vector2( 32, 32 )
10/shapes = [  ]
11/name = "012 - TapeteLado"
11/texture = ExtResource( 4 )
11/tex_offset = Vector2( 0, 0 )
11/modulate = Color( 1, 1, 1, 1 )
11/region = Rect2( 0, 0, 64, 64 )
11/is_autotile = false
11/occluder_offset = Vector2( 32, 32 )
11/navigation_offset = Vector2( 32, 32 )
11/shapes = [  ]
12/name = "013 - TapeteMeio"
12/texture = ExtResource( 5 )
12/tex_offset = Vector2( 0, 0 )
12/modulate = Color( 1, 1, 1, 1 )
12/region = Rect2( 0, 0, 64, 64 )
12/is_autotile = false
12/occluder_offset = Vector2( 32, 32 )
12/navigation_offset = Vector2( 32, 32 )
12/shapes = [  ]
13/name = "014 - Armario"
13/texture = ExtResource( 6 )
13/tex_offset = Vector2( 0, 0 )
13/modulate = Color( 1, 1, 1, 1 )
13/region = Rect2( 0, 0, 64, 64 )
13/is_autotile = false
13/occluder_offset = Vector2( 32, 32 )
13/navigation_offset = Vector2( 32, 32 )
13/shapes = [ {
"autotile_coord": Vector2( 0, 0 ),
"one_way": false,
"shape": SubResource( 9 ),
"shape_transform": Transform2D( 1, 0, 0, 1, 32, 32 )
} ]
14/name = "015 - Chao"
14/texture = ExtResource( 7 )
14/tex_offset = Vector2( 0, 0 )
14/modulate = Color( 1, 1, 1, 1 )
14/region = Rect2( 0, 0, 64, 64 )
14/is_autotile = false
14/occluder_offset = Vector2( 32, 32 )
14/navigation_offset = Vector2( 32, 32 )
14/shapes = [  ]
15/name = "016 - Geladeira"
15/texture = ExtResource( 8 )
15/tex_offset = Vector2( 0, 0 )
15/modulate = Color( 1, 1, 1, 1 )
15/region = Rect2( 0, 0, 64, 64 )
15/is_autotile = false
15/occluder_offset = Vector2( 32, 32 )
15/navigation_offset = Vector2( 32, 32 )
15/shapes = [ {
"autotile_coord": Vector2( 0, 0 ),
"one_way": false,
"shape": SubResource( 9 ),
"shape_transform": Transform2D( 0.928571, 0, 0, 1, 29.5, 32 )
} ]
16/name = "017 - Parede"
16/texture = ExtResource( 9 )
16/tex_offset = Vector2( 0, 0 )
16/modulate = Color( 1, 1, 1, 1 )
16/region = Rect2( 0, 0, 64, 64 )
16/is_autotile = false
16/occluder_offset = Vector2( 32, 32 )
16/navigation_offset = Vector2( 32, 32 )
16/shapes = [ {
"autotile_coord": Vector2( 0, 0 ),
"one_way": false,
"shape": SubResource( 9 ),
"shape_transform": Transform2D( 0.928571, 0, 0, 1, 29.5, 32 )
} ]
17/name = "018 - Privada"
17/texture = ExtResource( 10 )
17/tex_offset = Vector2( 0, 0 )
17/modulate = Color( 1, 1, 1, 1 )
17/region = Rect2( 0, 0, 64, 64 )
17/is_autotile = false
17/occluder_offset = Vector2( 32, 32 )
17/navigation_offset = Vector2( 32, 32 )
17/shapes = [ {
"autotile_coord": Vector2( 0, 0 ),
"one_way": false,
"shape": SubResource( 9 ),
"shape_transform": Transform2D( 0.857143, 0, 0, 1, 32, 32 )
} ]
18/name = "019 - Plantas"
18/texture = ExtResource( 11 )
18/tex_offset = Vector2( 0, 0 )
18/modulate = Color( 1, 1, 1, 1 )
18/region = Rect2( 0, 0, 64, 64 )
18/is_autotile = false
18/occluder_offset = Vector2( 32, 32 )
18/navigation_offset = Vector2( 32, 32 )
18/shapes = [ {
"autotile_coord": Vector2( 0, 0 ),
"one_way": false,
"shape": SubResource( 9 ),
"shape_transform": Transform2D( 0.857143, 0, 0, 1, 32, 32 )
} ]
19/name = "020 - foraDaCasa"
19/texture = ExtResource( 12 )
19/tex_offset = Vector2( 0, 0 )
19/modulate = Color( 1, 1, 1, 1 )
19/region = Rect2( 0, 0, 64, 64 )
19/is_autotile = false
19/occluder_offset = Vector2( 32, 32 )
19/navigation_offset = Vector2( 32, 32 )
19/shapes = [  ]
20/name = "021 - ChaoBanheiro"
20/texture = ExtResource( 14 )
20/tex_offset = Vector2( 0, 0 )
20/modulate = Color( 1, 1, 1, 1 )
20/region = Rect2( 0, 0, 64, 64 )
20/is_autotile = false
20/occluder_offset = Vector2( 32, 32 )
20/navigation_offset = Vector2( 32, 32 )
20/shapes = [  ]
21/name = "022 - Tapete"
21/texture = ExtResource( 15 )
21/tex_offset = Vector2( 0, 0 )
21/modulate = Color( 1, 1, 1, 1 )
21/region = Rect2( 0, 0, 192, 384 )
21/is_autotile = false
21/occluder_offset = Vector2( 96, 192 )
21/navigation_offset = Vector2( 96, 192 )
21/shapes = [  ]
22/name = "023 - TableCorner"
22/texture = ExtResource( 16 )
22/tex_offset = Vector2( 0, 0 )
22/modulate = Color( 1, 1, 1, 1 )
22/region = Rect2( 0, 0, 64, 64 )
22/is_autotile = false
22/occluder_offset = Vector2( 32, 32 )
22/navigation_offset = Vector2( 32, 32 )
22/shapes = [ {
"autotile_coord": Vector2( 0, 0 ),
"one_way": false,
"shape": SubResource( 11 ),
"shape_transform": Transform2D( 1, 0, 0, 1, 32, 32 )
} ]
23/name = "024 - TableMiddle"
23/texture = ExtResource( 17 )
23/tex_offset = Vector2( 0, 0 )
23/modulate = Color( 1, 1, 1, 1 )
23/region = Rect2( 0, 0, 64, 64 )
23/is_autotile = false
23/occluder_offset = Vector2( 32, 32 )
23/navigation_offset = Vector2( 32, 32 )
23/shapes = [ {
"autotile_coord": Vector2( 0, 0 ),
"one_way": false,
"shape": SubResource( 11 ),
"shape_transform": Transform2D( 1, 0, 0, 1, 32, 32 )
} ]

