[gd_scene load_steps=2 format=2]

[ext_resource path="res://Tilesets/pixel.png" type="Texture" id=1]

[node name="Node2D" type="Node2D"]

[node name="Dummy" type="Sprite" parent="." index="0"]

texture = ExtResource( 1 )


