[gd_scene load_steps=6 format=2]

[ext_resource path="res://Menus/GameOver.gd" type="Script" id=1]

[sub_resource type="DynamicFontData" id=1]

hinting = 2
font_path = "res://Subscribe.ttf"

[sub_resource type="DynamicFont" id=2]

size = 90
use_mipmaps = true
use_filter = false
font_data = SubResource( 1 )
_sections_unfolded = [ "Font", "Settings" ]

[sub_resource type="DynamicFontData" id=3]

hinting = 2
font_path = "res://Subscribe.ttf"

[sub_resource type="DynamicFont" id=4]

size = 60
use_mipmaps = true
use_filter = false
font_data = SubResource( 3 )
_sections_unfolded = [ "Font", "Settings" ]

[node name="GameOver" type="Control"]

anchor_left = 0.0
anchor_top = 0.0
anchor_right = 0.0
anchor_bottom = 0.0
margin_right = 40.0
margin_bottom = 40.0
rect_pivot_offset = Vector2( 0, 0 )
rect_clip_content = false
mouse_filter = 0
mouse_default_cursor_shape = 0
size_flags_horizontal = 1
size_flags_vertical = 1
script = ExtResource( 1 )

[node name="ColorRect" type="ColorRect" parent="." index="0"]

anchor_left = 0.0
anchor_top = 0.0
anchor_right = 0.0
anchor_bottom = 0.0
margin_right = 1022.0
margin_bottom = 607.0
rect_pivot_offset = Vector2( 0, 0 )
rect_clip_content = false
mouse_filter = 0
mouse_default_cursor_shape = 0
size_flags_horizontal = 1
size_flags_vertical = 1
color = Color( 0.628906, 0.0810699, 0.0810699, 1 )
_sections_unfolded = [ "Visibility" ]

[node name="Label" type="Label" parent="." index="1"]

anchor_left = 0.0
anchor_top = 0.0
anchor_right = 0.0
anchor_bottom = 0.0
margin_right = 1027.0
margin_bottom = 409.0
rect_pivot_offset = Vector2( 0, 0 )
rect_clip_content = false
mouse_filter = 2
mouse_default_cursor_shape = 0
size_flags_horizontal = 1
size_flags_vertical = 4
custom_fonts/font = SubResource( 2 )
text = "GAME OVER"
align = 1
valign = 1
percent_visible = 1.0
lines_skipped = 0
max_lines_visible = -1
_sections_unfolded = [ "custom_fonts" ]

[node name="Menu" type="Button" parent="." index="2"]

anchor_left = 0.0
anchor_top = 0.0
anchor_right = 0.0
anchor_bottom = 0.0
margin_left = 430.0
margin_top = 482.0
margin_right = 566.0
margin_bottom = 548.0
rect_pivot_offset = Vector2( 0, 0 )
rect_clip_content = false
focus_mode = 2
mouse_filter = 0
mouse_default_cursor_shape = 0
size_flags_horizontal = 1
size_flags_vertical = 1
custom_fonts/font = SubResource( 4 )
toggle_mode = false
enabled_focus_mode = 2
shortcut = null
group = null
text = "Menu"
flat = false
align = 1
_sections_unfolded = [ "custom_fonts" ]

[connection signal="pressed" from="Menu" to="." method="_on_Menu_pressed"]


