[gd_scene load_steps=9 format=2]

[ext_resource path="res://Menus/Instructions.gd" type="Script" id=1]
[ext_resource path="res://Menus/xablau.png" type="Texture" id=2]
[ext_resource path="res://Subscribe.ttf" type="DynamicFontData" id=3]

[sub_resource type="DynamicFontData" id=1]

hinting = 2
font_path = "res://Subscribe.ttf"

[sub_resource type="DynamicFont" id=2]

size = 60
use_mipmaps = false
use_filter = true
font_data = SubResource( 1 )
_sections_unfolded = [ "Font", "Settings" ]

[sub_resource type="DynamicFontData" id=3]

hinting = 2
font_path = "res://Subscribe.ttf"

[sub_resource type="DynamicFont" id=4]

size = 50
use_mipmaps = false
use_filter = true
font_data = SubResource( 3 )
_sections_unfolded = [ "Font", "Settings" ]

[sub_resource type="DynamicFont" id=5]

size = 33
use_mipmaps = false
use_filter = false
font_data = ExtResource( 3 )
_sections_unfolded = [ "Font", "Settings" ]

[node name="Instructions" type="Control"]

anchor_left = 0.0
anchor_top = 0.0
anchor_right = 0.0
anchor_bottom = 0.0
margin_right = 40.0
margin_bottom = 40.0
rect_pivot_offset = Vector2( 0, 0 )
rect_clip_content = false
mouse_filter = 0
mouse_default_cursor_shape = 0
size_flags_horizontal = 1
size_flags_vertical = 1
script = ExtResource( 1 )

[node name="Label" type="Label" parent="." index="0"]

anchor_left = 0.0
anchor_top = 0.0
anchor_right = 0.0
anchor_bottom = 0.0
margin_top = -8.0
margin_right = 1025.0
margin_bottom = 96.0
rect_pivot_offset = Vector2( 0, 0 )
rect_clip_content = false
mouse_filter = 2
mouse_default_cursor_shape = 0
size_flags_horizontal = 1
size_flags_vertical = 4
custom_fonts/font = SubResource( 2 )
text = "Instructions"
align = 1
valign = 1
percent_visible = 1.0
lines_skipped = 0
max_lines_visible = -1
_sections_unfolded = [ "custom_fonts" ]

[node name="Sprite" type="Sprite" parent="." index="1"]

position = Vector2( 791.534, 301.13 )
scale = Vector2( 0.65, 0.65 )
texture = ExtResource( 2 )
_sections_unfolded = [ "Transform" ]

[node name="LetsGo" type="Button" parent="." index="2"]

anchor_left = 0.0
anchor_top = 0.0
anchor_right = 0.0
anchor_bottom = 0.0
margin_left = 440.0
margin_top = 527.0
margin_right = 603.0
margin_bottom = 584.0
rect_pivot_offset = Vector2( 0, 0 )
rect_clip_content = false
focus_mode = 2
mouse_filter = 0
mouse_default_cursor_shape = 0
size_flags_horizontal = 1
size_flags_vertical = 1
custom_fonts/font = SubResource( 4 )
toggle_mode = false
enabled_focus_mode = 2
shortcut = null
group = null
text = "Let's Go!"
flat = false
align = 1
_sections_unfolded = [ "custom_fonts" ]

[node name="Label2" type="Label" parent="." index="3"]

anchor_left = 0.0
anchor_top = 0.0
anchor_right = 0.0
anchor_bottom = 0.0
margin_left = 22.0
margin_top = 109.0
margin_right = 528.0
margin_bottom = 526.0
rect_pivot_offset = Vector2( 0, 0 )
rect_clip_content = false
mouse_filter = 2
mouse_default_cursor_shape = 0
size_flags_horizontal = 1
size_flags_vertical = 4
custom_fonts/font = SubResource( 5 )
text = "Fight the dinosaur, eat the cookies and open the chest!

Don't wander away from your mother for too long!

You can cry to call your mothers attention.
"
align = 1
valign = 1
autowrap = true
percent_visible = 1.0
lines_skipped = 0
max_lines_visible = -1
_sections_unfolded = [ "custom_fonts" ]

[connection signal="pressed" from="LetsGo" to="." method="_on_LetsGo_pressed"]


