[gd_scene load_steps=6 format=2]

[ext_resource path="res://Mother/Mother.gd" type="Script" id=1]
[ext_resource path="res://Mother/mom_walk.png" type="Texture" id=2]
[ext_resource path="res://SoundEffects/imrighthere.wav" type="AudioStream" id=3]

[sub_resource type="Animation" id=1]

resource_name = "idle"
length = 0.1
loop = false
step = 0.1
tracks/0/type = "value"
tracks/0/path = NodePath(".:frame")
tracks/0/interp = 1
tracks/0/loop_wrap = true
tracks/0/imported = false
tracks/0/enabled = true
tracks/0/keys = {
"times": PoolRealArray( 0 ),
"transitions": PoolRealArray( 1 ),
"update": 1,
"values": [ 0 ]
}

[sub_resource type="Animation" id=2]

resource_name = "walk"
length = 0.8
loop = true
step = 0.1
tracks/0/type = "value"
tracks/0/path = NodePath(".:frame")
tracks/0/interp = 1
tracks/0/loop_wrap = true
tracks/0/imported = false
tracks/0/enabled = true
tracks/0/keys = {
"times": PoolRealArray( 0, 0.1, 0.2, 0.3, 0.4, 0.5, 0.6, 0.7 ),
"transitions": PoolRealArray( 1, 1, 1, 1, 1, 1, 1, 1 ),
"update": 1,
"values": [ 0, 1, 2, 1, 0, 3, 4, 3 ]
}

[node name="Mother" type="KinematicBody2D"]

input_pickable = false
collision_layer = 1
collision_mask = 5
collision/safe_margin = 0.08
script = ExtResource( 1 )
_sections_unfolded = [ "Collision" ]

[node name="Sprite" type="Sprite" parent="." index="0"]

texture = ExtResource( 2 )
hframes = 5
_sections_unfolded = [ "Animation", "Transform" ]

[node name="AnimationPlayer" type="AnimationPlayer" parent="Sprite" index="0"]

root_node = NodePath("..")
autoplay = ""
playback_process_mode = 1
playback_default_blend_time = 0.0
playback_speed = 1.0
anims/idle = SubResource( 1 )
anims/walk = SubResource( 2 )
blend_times = [  ]

[node name="CollisionPolygon2D" type="CollisionPolygon2D" parent="." index="1"]

build_mode = 0
polygon = PoolVector2Array( -18.1517, -19.1973, -23.7052, -0.543419, -16.3006, 16.8289, 0.644516, 23.5215, 17.1624, 17.1137, 23.2855, 0.026165, 19.0136, -16.6342, 0.0749359, -26.0323 )

[node name="Imrighthere" type="AudioStreamPlayer" parent="." index="2"]

stream = ExtResource( 3 )
volume_db = -30.0
pitch_scale = 1.0
autoplay = false
mix_target = 0
bus = "Master"

[node name="KidTimer" type="Timer" parent="." index="3"]

process_mode = 1
wait_time = 4.0
one_shot = true
autostart = false

[node name="IdleTimer" type="Timer" parent="." index="4"]

process_mode = 1
wait_time = 4.0
one_shot = true
autostart = true

[connection signal="timeout" from="KidTimer" to="." method="_on_KidTimer_timeout"]

[connection signal="timeout" from="IdleTimer" to="." method="_on_IdleTimer_timeout"]


